<?xml version="1.0" encoding="UTF-8" standalone="no"?>
<!-- created by axpde for Wikipedia -->

<svg
   xmlns:dc="http://purl.org/dc/elements/1.1/"
   xmlns:cc="http://creativecommons.org/ns#"
   xmlns:rdf="http://www.w3.org/1999/02/22-rdf-syntax-ns#"
   xmlns:svg="http://www.w3.org/2000/svg"
   xmlns="http://www.w3.org/2000/svg"
   xmlns:sodipodi="http://sodipodi.sourceforge.net/DTD/sodipodi-0.dtd"
   xmlns:inkscape="http://www.inkscape.org/namespaces/inkscape"
   width="500"
   height="500"
   viewBox="0 0 500 500"
   version="1.1"
   id="svg10"
   sodipodi:docname="icon-stop.svg"
   inkscape:version="0.92.3 (2405546, 2018-03-11)">
  <metadata
     id="metadata16">
    <rdf:RDF>
      <cc:Work
         rdf:about="">
        <dc:format>image/svg+xml</dc:format>
        <dc:type
           rdf:resource="http://purl.org/dc/dcmitype/StillImage" />
      </cc:Work>
    </rdf:RDF>
  </metadata>
  <defs
     id="defs14" />
  <sodipodi:namedview
     pagecolor="#ffffff"
     bordercolor="#666666"
     borderopacity="1"
     objecttolerance="10"
     gridtolerance="10"
     guidetolerance="10"
     inkscape:pageopacity="0"
     inkscape:pageshadow="2"
     inkscape:window-width="1853"
     inkscape:window-height="1025"
     id="namedview12"
     showgrid="false"
     inkscape:zoom="0.6675088"
     inkscape:cx="-162.82577"
     inkscape:cy="288.74758"
     inkscape:window-x="67"
     inkscape:window-y="27"
     inkscape:window-maximized="1"
     inkscape:current-layer="svg10"
     showguides="false" />
  <title
     id="title2">BSicon Kopfbahnhof</title>
  <g
     id="g47"
     transform="matrix(4.8888889,0,0,4.8888889,29.999999,30.000071)">
    <g
       transform="translate(0,-962.36)"
       id="layer1">
      <rect
         style="color:#000000;fill:none"
         height="90"
         width="90"
         y="962.35999"
         id="rect4198"
         x="0" />
      <path
         style="color:#000000;fill:#000000"
         d="m 45,962.36 c -14.912,0 -27,12.088 -27,27 0,0.56158 0.0287,1.1032 0.0625,1.6562 0.01333,0.24822 0.01224,0.49695 0.03125,0.75 0.0203,0.22861 0.06779,0.46057 0.09375,0.6875 2.0322,21.76 23.735,59.906 26.812,59.906 3.077,0 24.78,-38.146 26.812,-59.906 0.02163,-0.23162 0.07663,-0.45966 0.09375,-0.6875 0.02202,-0.24799 0.01598,-0.50012 0.03125,-0.75 0.03015,-0.56145 0.0625,-1.121 0.0625,-1.6562 0,-14.912 -12.088,-27 -27,-27 z m 0,9 c 9.9411,0 18,8.0589 18,18 0,9.9411 -8.0589,18 -18,18 -9.9411,0 -18,-8.0589 -18,-18 0,-9.9411 8.0589,-18 18,-18 z"
         id="path816"
         inkscape:connector-curvature="0" />
    </g>
    <g
       style="display:none"
       id="layer2">
      <path
         style="color:#000000;display:inline;fill:#808080"
         d="M 72,27 C 72,48 48.229,90 45,90 41.7708,90 18,48 18,27 c 1.6146,-3.6596 54,-4 54,0 z"
         id="path4984-5"
         inkscape:connector-curvature="0" />
      <path
         style="color:#000000;display:inline;fill:#808080"
         d="m 66,21 a 21,21 0 1 1 -42,0 21,21 0 1 1 42,0 z"
         transform="matrix(1.2857,0,0,1.2857,-12.857,-2.0071e-5)"
         id="path830-6"
         inkscape:connector-curvature="0" />
      <path
         style="color:#000000;display:inline;fill:#ffffff"
         d="m 66,21 a 21,21 0 1 1 -42,0 21,21 0 1 1 42,0 z"
         transform="matrix(0.42857,0,0,0.42857,25.714,18)"
         id="path832-2"
         inkscape:connector-curvature="0" />
    </g>
  </g>
</svg>
